\relax 
\providecommand\hyper@newdestlabel[2]{}
\catcode `"\active 
\providecommand\HyperFirstAtBeginDocument{\AtBeginDocument}
\HyperFirstAtBeginDocument{\ifx\hyper@anchor\@undefined
\global\let\oldcontentsline\contentsline
\gdef\contentsline#1#2#3#4{\oldcontentsline{#1}{#2}{#3}}
\global\let\oldnewlabel\newlabel
\gdef\newlabel#1#2{\newlabelxx{#1}#2}
\gdef\newlabelxx#1#2#3#4#5#6{\oldnewlabel{#1}{{#2}{#3}}}
\AtEndDocument{\ifx\hyper@anchor\@undefined
\let\contentsline\oldcontentsline
\let\newlabel\oldnewlabel
\fi}
\fi}
\global\let\hyper@last\relax 
\gdef\HyperFirstAtBeginDocument#1{#1}
\providecommand\HyField@AuxAddToFields[1]{}
\providecommand\HyField@AuxAddToCoFields[2]{}
\babel@aux{russian}{}
\@writefile{toc}{\contentsline {section}{\numberline {1}\IeC {\CYRP }\IeC {\cyro }\IeC {\cyrs }\IeC {\cyrt }\IeC {\cyra }\IeC {\cyrn }\IeC {\cyro }\IeC {\cyrv }\IeC {\cyrk }\IeC {\cyra } \IeC {\cyrz }\IeC {\cyra }\IeC {\cyrd }\IeC {\cyra }\IeC {\cyrch }\IeC {\cyri }}{2}{section.1}}
\newlabel{eq1}{{1}{2}{Постановка задачи}{equation.1.1}{}}
\newlabel{eq2}{{2}{2}{Постановка задачи}{equation.1.2}{}}
\@writefile{toc}{\contentsline {section}{\numberline {2}\IeC {\CYRO }\IeC {\cyrp }\IeC {\cyri }\IeC {\cyrs }\IeC {\cyra }\IeC {\cyrn }\IeC {\cyri }\IeC {\cyre } \IeC {\cyro }\IeC {\cyrb }\IeC {\cyrl }\IeC {\cyra }\IeC {\cyrs }\IeC {\cyrt }\IeC {\cyri }}{2}{section.2}}
\@writefile{lof}{\contentsline {figure}{\numberline {1}{\ignorespaces \IeC {\CYRO }\IeC {\cyrb }\IeC {\cyrl }\IeC {\cyra }\IeC {\cyrs }\IeC {\cyrt }\IeC {\cyrsftsn } $\Omega $.}}{2}{figure.1}}
\newlabel{ris:area1}{{1}{2}{Область $\Omega $}{figure.1}{}}
\@writefile{toc}{\contentsline {section}{\numberline {3}\IeC {\CYRO }\IeC {\cyrp }\IeC {\cyri }\IeC {\cyrs }\IeC {\cyra }\IeC {\cyrn }\IeC {\cyri }\IeC {\cyre } \IeC {\cyrs }\IeC {\cyrh }\IeC {\cyre }\IeC {\cyrm }\IeC {\cyrery }}{2}{section.3}}
\newlabel{eq4}{{3}{3}{Описание схемы}{equation.3.3}{}}
\@writefile{toc}{\contentsline {section}{\numberline {4}\IeC {\CYRK }\IeC {\cyro }\IeC {\cyro }\IeC {\cyrr }\IeC {\cyrd }\IeC {\cyri }\IeC {\cyrn }\IeC {\cyra }\IeC {\cyrt }\IeC {\cyrn }\IeC {\cyra }\IeC {\cyrya } \IeC {\cyrz }\IeC {\cyra }\IeC {\cyrp }\IeC {\cyri }\IeC {\cyrs }\IeC {\cyrsftsn } \IeC {\cyru }\IeC {\cyrr }\IeC {\cyra }\IeC {\cyrv }\IeC {\cyrn }\IeC {\cyre }\IeC {\cyrn }\IeC {\cyri }\IeC {\cyrishrt }}{3}{section.4}}
\newlabel{eq5}{{4}{3}{Координатная запись уравнений}{equation.4.4}{}}
\newlabel{eq5.3}{{5}{4}{Координатная запись уравнений}{equation.4.5}{}}
\@writefile{toc}{\contentsline {section}{\numberline {5}\IeC {\CYRR }\IeC {\cyra }\IeC {\cyrs }\IeC {\cyrch }\IeC {\cyre }\IeC {\cyrt } \IeC {\cyrg }\IeC {\cyrl }\IeC {\cyra }\IeC {\cyrd }\IeC {\cyrk }\IeC {\cyro }\IeC {\cyrg }\IeC {\cyro } \IeC {\cyrr }\IeC {\cyre }\IeC {\cyrsh }\IeC {\cyre }\IeC {\cyrn }\IeC {\cyri }\IeC {\cyrya }}{4}{section.5}}
\@writefile{toc}{\contentsline {subsection}{\IeC {\CYRP }\IeC {\cyro }\IeC {\cyrs }\IeC {\cyrt }\IeC {\cyra }\IeC {\cyrn }\IeC {\cyro }\IeC {\cyrv }\IeC {\cyrk }\IeC {\cyra } \IeC {\cyrz }\IeC {\cyra }\IeC {\cyrd }\IeC {\cyra }\IeC {\cyrch }\IeC {\cyri }}{4}{section*.2}}
\newlabel{eq5}{{6}{4}{Расчет гладкого решения}{equation.5.6}{}}
\newlabel{eq9}{{7}{5}{Расчет гладкого решения}{equation.5.7}{}}
\@writefile{toc}{\contentsline {subsection}{\IeC {\CYRT }\IeC {\cyra }\IeC {\cyrb }\IeC {\cyrl }\IeC {\cyri }\IeC {\cyrc }\IeC {\cyrery } \IeC {\cyro }\IeC {\cyrsh }\IeC {\cyri }\IeC {\cyrb }\IeC {\cyro }\IeC {\cyrk }}{5}{equation.5.7}}
\@writefile{lot}{\contentsline {table}{\numberline {1}{\ignorespaces \IeC {\CYRO }\IeC {\cyrsh }\IeC {\cyri }\IeC {\cyrb }\IeC {\cyrk }\IeC {\cyra } \IeC {\cyrr }\IeC {\cyre }\IeC {\cyrsh }\IeC {\cyre }\IeC {\cyrn }\IeC {\cyri }\IeC {\cyrya } \IeC {\cyrd }\IeC {\cyrl }\IeC {\cyrya } G \IeC {\cyrp }\IeC {\cyrr }\IeC {\cyri } $\mu = 0.1$ \IeC {\cyri } $C=1$}}{5}{table.1}}
\@writefile{lot}{\contentsline {table}{\numberline {2}{\ignorespaces \IeC {\CYRO }\IeC {\cyrsh }\IeC {\cyri }\IeC {\cyrb }\IeC {\cyrk }\IeC {\cyra } \IeC {\cyrr }\IeC {\cyre }\IeC {\cyrsh }\IeC {\cyre }\IeC {\cyrn }\IeC {\cyri }\IeC {\cyrya } \IeC {\cyrd }\IeC {\cyrl }\IeC {\cyrya } V1 \IeC {\cyrp }\IeC {\cyrr }\IeC {\cyri } $\mu = 0.1$ \IeC {\cyri } $C=1$}}{5}{table.2}}
\@writefile{lot}{\contentsline {table}{\numberline {3}{\ignorespaces \IeC {\CYRO }\IeC {\cyrsh }\IeC {\cyri }\IeC {\cyrb }\IeC {\cyrk }\IeC {\cyra } \IeC {\cyrr }\IeC {\cyre }\IeC {\cyrsh }\IeC {\cyre }\IeC {\cyrn }\IeC {\cyri }\IeC {\cyrya } \IeC {\cyrd }\IeC {\cyrl }\IeC {\cyrya } V2 \IeC {\cyrp }\IeC {\cyrr }\IeC {\cyri } $\mu = 0.1$ \IeC {\cyri } $C=1$}}{6}{table.3}}
\@writefile{lot}{\contentsline {table}{\numberline {4}{\ignorespaces \IeC {\CYRO }\IeC {\cyrsh }\IeC {\cyri }\IeC {\cyrb }\IeC {\cyrk }\IeC {\cyra } \IeC {\cyrr }\IeC {\cyre }\IeC {\cyrsh }\IeC {\cyre }\IeC {\cyrn }\IeC {\cyri }\IeC {\cyrya } \IeC {\cyrd }\IeC {\cyrl }\IeC {\cyrya } G \IeC {\cyrp }\IeC {\cyrr }\IeC {\cyri } $\mu = 0.01$ \IeC {\cyri } $C=1$}}{6}{table.4}}
\@writefile{lot}{\contentsline {table}{\numberline {5}{\ignorespaces \IeC {\CYRO }\IeC {\cyrsh }\IeC {\cyri }\IeC {\cyrb }\IeC {\cyrk }\IeC {\cyra } \IeC {\cyrr }\IeC {\cyre }\IeC {\cyrsh }\IeC {\cyre }\IeC {\cyrn }\IeC {\cyri }\IeC {\cyrya } \IeC {\cyrd }\IeC {\cyrl }\IeC {\cyrya } V1 \IeC {\cyrp }\IeC {\cyrr }\IeC {\cyri } $\mu = 0.01$ \IeC {\cyri } $C=1$}}{7}{table.5}}
\@writefile{lot}{\contentsline {table}{\numberline {6}{\ignorespaces \IeC {\CYRO }\IeC {\cyrsh }\IeC {\cyri }\IeC {\cyrb }\IeC {\cyrk }\IeC {\cyra } \IeC {\cyrr }\IeC {\cyre }\IeC {\cyrsh }\IeC {\cyre }\IeC {\cyrn }\IeC {\cyri }\IeC {\cyrya } \IeC {\cyrd }\IeC {\cyrl }\IeC {\cyrya } V2 \IeC {\cyrp }\IeC {\cyrr }\IeC {\cyri } $\mu = 0.01$ \IeC {\cyri } $C=1$}}{7}{table.6}}
\@writefile{lot}{\contentsline {table}{\numberline {7}{\ignorespaces \IeC {\CYRO }\IeC {\cyrsh }\IeC {\cyri }\IeC {\cyrb }\IeC {\cyrk }\IeC {\cyra } \IeC {\cyrr }\IeC {\cyre }\IeC {\cyrsh }\IeC {\cyre }\IeC {\cyrn }\IeC {\cyri }\IeC {\cyrya } \IeC {\cyrd }\IeC {\cyrl }\IeC {\cyrya } G \IeC {\cyrp }\IeC {\cyrr }\IeC {\cyri } $\mu = 0.001$ \IeC {\cyri } $C=1$}}{8}{table.7}}
\@writefile{lot}{\contentsline {table}{\numberline {8}{\ignorespaces \IeC {\CYRO }\IeC {\cyrsh }\IeC {\cyri }\IeC {\cyrb }\IeC {\cyrk }\IeC {\cyra } \IeC {\cyrr }\IeC {\cyre }\IeC {\cyrsh }\IeC {\cyre }\IeC {\cyrn }\IeC {\cyri }\IeC {\cyrya } \IeC {\cyrd }\IeC {\cyrl }\IeC {\cyrya } V1 \IeC {\cyrp }\IeC {\cyrr }\IeC {\cyri } $\mu = 0.001$ \IeC {\cyri } $C=1$}}{8}{table.8}}
\@writefile{lot}{\contentsline {table}{\numberline {9}{\ignorespaces \IeC {\CYRO }\IeC {\cyrsh }\IeC {\cyri }\IeC {\cyrb }\IeC {\cyrk }\IeC {\cyra } \IeC {\cyrr }\IeC {\cyre }\IeC {\cyrsh }\IeC {\cyre }\IeC {\cyrn }\IeC {\cyri }\IeC {\cyrya } \IeC {\cyrd }\IeC {\cyrl }\IeC {\cyrya } V2 \IeC {\cyrp }\IeC {\cyrr }\IeC {\cyri } $\mu = 0.001$ \IeC {\cyri } $C=1$}}{9}{table.9}}
\@writefile{lot}{\contentsline {table}{\numberline {10}{\ignorespaces \IeC {\CYRO }\IeC {\cyrsh }\IeC {\cyri }\IeC {\cyrb }\IeC {\cyrk }\IeC {\cyra } \IeC {\cyrr }\IeC {\cyre }\IeC {\cyrsh }\IeC {\cyre }\IeC {\cyrn }\IeC {\cyri }\IeC {\cyrya } \IeC {\cyrd }\IeC {\cyrl }\IeC {\cyrya } G \IeC {\cyrp }\IeC {\cyrr }\IeC {\cyri } $\mu = 0.1$ \IeC {\cyri } $C=10$}}{9}{table.10}}
\@writefile{lot}{\contentsline {table}{\numberline {11}{\ignorespaces \IeC {\CYRO }\IeC {\cyrsh }\IeC {\cyri }\IeC {\cyrb }\IeC {\cyrk }\IeC {\cyra } \IeC {\cyrr }\IeC {\cyre }\IeC {\cyrsh }\IeC {\cyre }\IeC {\cyrn }\IeC {\cyri }\IeC {\cyrya } \IeC {\cyrd }\IeC {\cyrl }\IeC {\cyrya } V1 \IeC {\cyrp }\IeC {\cyrr }\IeC {\cyri } $\mu = 0.1$ \IeC {\cyri } $C=10$}}{10}{table.11}}
\@writefile{lot}{\contentsline {table}{\numberline {12}{\ignorespaces \IeC {\CYRO }\IeC {\cyrsh }\IeC {\cyri }\IeC {\cyrb }\IeC {\cyrk }\IeC {\cyra } \IeC {\cyrr }\IeC {\cyre }\IeC {\cyrsh }\IeC {\cyre }\IeC {\cyrn }\IeC {\cyri }\IeC {\cyrya } \IeC {\cyrd }\IeC {\cyrl }\IeC {\cyrya } V2 \IeC {\cyrp }\IeC {\cyrr }\IeC {\cyri } $\mu = 0.1$ \IeC {\cyri } $C=10$}}{10}{table.12}}
\@writefile{lot}{\contentsline {table}{\numberline {13}{\ignorespaces \IeC {\CYRO }\IeC {\cyrsh }\IeC {\cyri }\IeC {\cyrb }\IeC {\cyrk }\IeC {\cyra } \IeC {\cyrr }\IeC {\cyre }\IeC {\cyrsh }\IeC {\cyre }\IeC {\cyrn }\IeC {\cyri }\IeC {\cyrya } \IeC {\cyrd }\IeC {\cyrl }\IeC {\cyrya } G \IeC {\cyrp }\IeC {\cyrr }\IeC {\cyri } $\mu = 0.01$ \IeC {\cyri } $C=10$}}{11}{table.13}}
\@writefile{lot}{\contentsline {table}{\numberline {14}{\ignorespaces \IeC {\CYRO }\IeC {\cyrsh }\IeC {\cyri }\IeC {\cyrb }\IeC {\cyrk }\IeC {\cyra } \IeC {\cyrr }\IeC {\cyre }\IeC {\cyrsh }\IeC {\cyre }\IeC {\cyrn }\IeC {\cyri }\IeC {\cyrya } \IeC {\cyrd }\IeC {\cyrl }\IeC {\cyrya } V1 \IeC {\cyrp }\IeC {\cyrr }\IeC {\cyri } $\mu = 0.01$ \IeC {\cyri } $C=10$}}{11}{table.14}}
\@writefile{lot}{\contentsline {table}{\numberline {15}{\ignorespaces \IeC {\CYRO }\IeC {\cyrsh }\IeC {\cyri }\IeC {\cyrb }\IeC {\cyrk }\IeC {\cyra } \IeC {\cyrr }\IeC {\cyre }\IeC {\cyrsh }\IeC {\cyre }\IeC {\cyrn }\IeC {\cyri }\IeC {\cyrya } \IeC {\cyrd }\IeC {\cyrl }\IeC {\cyrya } V2 \IeC {\cyrp }\IeC {\cyrr }\IeC {\cyri } $\mu = 0.01$ \IeC {\cyri } $C=10$}}{12}{table.15}}
\@writefile{lot}{\contentsline {table}{\numberline {16}{\ignorespaces \IeC {\CYRO }\IeC {\cyrsh }\IeC {\cyri }\IeC {\cyrb }\IeC {\cyrk }\IeC {\cyra } \IeC {\cyrr }\IeC {\cyre }\IeC {\cyrsh }\IeC {\cyre }\IeC {\cyrn }\IeC {\cyri }\IeC {\cyrya } \IeC {\cyrd }\IeC {\cyrl }\IeC {\cyrya } G \IeC {\cyrp }\IeC {\cyrr }\IeC {\cyri } $\mu = 0.001$ \IeC {\cyri } $C=10$}}{12}{table.16}}
\@writefile{lot}{\contentsline {table}{\numberline {17}{\ignorespaces \IeC {\CYRO }\IeC {\cyrsh }\IeC {\cyri }\IeC {\cyrb }\IeC {\cyrk }\IeC {\cyra } \IeC {\cyrr }\IeC {\cyre }\IeC {\cyrsh }\IeC {\cyre }\IeC {\cyrn }\IeC {\cyri }\IeC {\cyrya } \IeC {\cyrd }\IeC {\cyrl }\IeC {\cyrya } V1 \IeC {\cyrp }\IeC {\cyrr }\IeC {\cyri } $\mu = 0.001$ \IeC {\cyri } $C=10$}}{13}{table.17}}
\@writefile{lot}{\contentsline {table}{\numberline {18}{\ignorespaces \IeC {\CYRO }\IeC {\cyrsh }\IeC {\cyri }\IeC {\cyrb }\IeC {\cyrk }\IeC {\cyra } \IeC {\cyrr }\IeC {\cyre }\IeC {\cyrsh }\IeC {\cyre }\IeC {\cyrn }\IeC {\cyri }\IeC {\cyrya } \IeC {\cyrd }\IeC {\cyrl }\IeC {\cyrya } V2 \IeC {\cyrp }\IeC {\cyrr }\IeC {\cyri } $\mu = 0.001$ \IeC {\cyri } $C=10$}}{13}{table.18}}
\@writefile{toc}{\contentsline {subsection}{\IeC {\CYRV }\IeC {\cyrery }\IeC {\cyrv }\IeC {\cyro }\IeC {\cyrd }}{14}{table.18}}
\@writefile{toc}{\contentsline {section}{\numberline {6}\IeC {\CYRI }\IeC {\cyrs }\IeC {\cyrs }\IeC {\cyrl }\IeC {\cyre }\IeC {\cyrd }\IeC {\cyro }\IeC {\cyrv }\IeC {\cyra }\IeC {\cyrn }\IeC {\cyri }\IeC {\cyre } \IeC {\cyrz }\IeC {\cyra }\IeC {\cyrd }\IeC {\cyra }\IeC {\cyrch }\IeC {\cyri } \IeC {\cyrp }\IeC {\cyrr }\IeC {\cyro }\IeC {\cyrt }\IeC {\cyre }\IeC {\cyrk }\IeC {\cyra }\IeC {\cyrn }\IeC {\cyri }\IeC {\cyrya }}{14}{section.6}}
\@writefile{toc}{\contentsline {subsection}{\IeC {\CYRP }\IeC {\cyro }\IeC {\cyrs }\IeC {\cyrt }\IeC {\cyra }\IeC {\cyrn }\IeC {\cyro }\IeC {\cyrv }\IeC {\cyrk }\IeC {\cyra } \IeC {\cyrz }\IeC {\cyra }\IeC {\cyrd }\IeC {\cyra }\IeC {\cyrch }\IeC {\cyri }}{14}{section*.3}}
\@writefile{lof}{\contentsline {figure}{\numberline {2}{\ignorespaces \IeC {\CYRO }\IeC {\cyrb }\IeC {\cyrl }\IeC {\cyra }\IeC {\cyrs }\IeC {\cyrt }\IeC {\cyrsftsn } $\Omega $.}}{14}{figure.2}}
\newlabel{ris:area2}{{2}{14}{Область $\Omega $}{figure.2}{}}
\newlabel{eq10}{{8}{14}{Исследование задачи протекания}{equation.6.8}{}}
\newlabel{eq30}{{9}{14}{Исследование задачи протекания}{equation.6.9}{}}
\@writefile{toc}{\contentsline {subsection}{\IeC {\CYRP }\IeC {\cyre }\IeC {\cyrr }\IeC {\cyrv }\IeC {\cyrery }\IeC {\cyrishrt } \IeC {\cyrn }\IeC {\cyra }\IeC {\cyrb }\IeC {\cyro }\IeC {\cyrr } \IeC {\cyrp }\IeC {\cyra }\IeC {\cyrr }\IeC {\cyra }\IeC {\cyrm }\IeC {\cyre }\IeC {\cyrt }\IeC {\cyrr }\IeC {\cyro }\IeC {\cyrv }}{14}{equation.6.9}}
\@writefile{lot}{\contentsline {table}{\numberline {19}{\ignorespaces \IeC {\CYRM }\IeC {\cyro }\IeC {\cyrm }\IeC {\cyre }\IeC {\cyrn }\IeC {\cyrt } \IeC {\cyrz }\IeC {\cyra }\IeC {\cyrv }\IeC {\cyre }\IeC {\cyrr }\IeC {\cyrsh }\IeC {\cyre }\IeC {\cyrn }\IeC {\cyri }\IeC {\cyrya } \IeC {\cyrp }\IeC {\cyrr }\IeC {\cyro }\IeC {\cyrg }\IeC {\cyrr }\IeC {\cyra }\IeC {\cyrm }\IeC {\cyrm }\IeC {\cyrery } \IeC {\cyrv }\IeC {\cyrery }\IeC {\cyrch }\IeC {\cyri }\IeC {\cyrs }\IeC {\cyrl }\IeC {\cyre }\IeC {\cyrn }\IeC {\cyri }\IeC {\cyrya } \IeC {\cyrz }\IeC {\cyra }\IeC {\cyrd }\IeC {\cyra }\IeC {\cyrch }\IeC {\cyri } \IeC {\cyrp }\IeC {\cyrr }\IeC {\cyro }\IeC {\cyrt }\IeC {\cyre }\IeC {\cyrk }\IeC {\cyra }\IeC {\cyrn }\IeC {\cyri }\IeC {\cyrya }, $h = 0.05, \tau = 0.01$}}{14}{table.19}}
\@writefile{toc}{\contentsline {subsection}{\IeC {\CYRI }\IeC {\cyrl }\IeC {\cyrl }\IeC {\cyryu }\IeC {\cyrs }\IeC {\cyrt }\IeC {\cyrr }\IeC {\cyra }\IeC {\cyrc }\IeC {\cyri }\IeC {\cyri }}{14}{table.19}}
\@writefile{lof}{\contentsline {figure}{\numberline {3}{\ignorespaces \IeC {\CYRP }\IeC {\cyrr }\IeC {\cyro }\IeC {\cyrm }\IeC {\cyre }\IeC {\cyrzh }\IeC {\cyru }\IeC {\cyrt }\IeC {\cyro }\IeC {\cyrch }\IeC {\cyrn }\IeC {\cyrery }\IeC {\cyrishrt } \IeC {\cyrm }\IeC {\cyro }\IeC {\cyrm }\IeC {\cyre }\IeC {\cyrn }\IeC {\cyrt } \IeC {\cyrs }\IeC {\cyro }\IeC {\cyrs }\IeC {\cyrt }\IeC {\cyro }\IeC {\cyrya }\IeC {\cyrn }\IeC {\cyri }\IeC {\cyrya } \IeC {\cyrg }\IeC {\cyra }\IeC {\cyrz }\IeC {\cyra }}}{15}{figure.3}}
\@writefile{lof}{\contentsline {figure}{\numberline {4}{\ignorespaces \IeC {\CYRP }\IeC {\cyrr }\IeC {\cyro }\IeC {\cyrm }\IeC {\cyre }\IeC {\cyrzh }\IeC {\cyru }\IeC {\cyrt }\IeC {\cyro }\IeC {\cyrch }\IeC {\cyrn }\IeC {\cyrery }\IeC {\cyrishrt } \IeC {\cyrm }\IeC {\cyro }\IeC {\cyrm }\IeC {\cyre }\IeC {\cyrn }\IeC {\cyrt } \IeC {\cyrs }\IeC {\cyro }\IeC {\cyrs }\IeC {\cyrt }\IeC {\cyro }\IeC {\cyrya }\IeC {\cyrn }\IeC {\cyri }\IeC {\cyrya } \IeC {\cyrg }\IeC {\cyra }\IeC {\cyrz }\IeC {\cyra }}}{15}{figure.4}}
\@writefile{lof}{\contentsline {figure}{\numberline {5}{\ignorespaces \IeC {\CYRP }\IeC {\cyrr }\IeC {\cyro }\IeC {\cyrm }\IeC {\cyre }\IeC {\cyrzh }\IeC {\cyru }\IeC {\cyrt }\IeC {\cyro }\IeC {\cyrch }\IeC {\cyrn }\IeC {\cyrery }\IeC {\cyrishrt } \IeC {\cyrm }\IeC {\cyro }\IeC {\cyrm }\IeC {\cyre }\IeC {\cyrn }\IeC {\cyrt } \IeC {\cyrs }\IeC {\cyro }\IeC {\cyrs }\IeC {\cyrt }\IeC {\cyro }\IeC {\cyrya }\IeC {\cyrn }\IeC {\cyri }\IeC {\cyrya } \IeC {\cyrg }\IeC {\cyra }\IeC {\cyrz }\IeC {\cyra }}}{15}{figure.5}}
\@writefile{lof}{\contentsline {figure}{\numberline {6}{\ignorespaces \IeC {\CYRP }\IeC {\cyrr }\IeC {\cyro }\IeC {\cyrm }\IeC {\cyre }\IeC {\cyrzh }\IeC {\cyru }\IeC {\cyrt }\IeC {\cyro }\IeC {\cyrch }\IeC {\cyrn }\IeC {\cyrery }\IeC {\cyrishrt } \IeC {\cyrm }\IeC {\cyro }\IeC {\cyrm }\IeC {\cyre }\IeC {\cyrn }\IeC {\cyrt } \IeC {\cyrs }\IeC {\cyro }\IeC {\cyrs }\IeC {\cyrt }\IeC {\cyro }\IeC {\cyrya }\IeC {\cyrn }\IeC {\cyri }\IeC {\cyrya } \IeC {\cyrg }\IeC {\cyra }\IeC {\cyrz }\IeC {\cyra }}}{16}{figure.6}}
\@writefile{lof}{\contentsline {figure}{\numberline {7}{\ignorespaces \IeC {\CYRP }\IeC {\cyrr }\IeC {\cyro }\IeC {\cyrm }\IeC {\cyre }\IeC {\cyrzh }\IeC {\cyru }\IeC {\cyrt }\IeC {\cyro }\IeC {\cyrch }\IeC {\cyrn }\IeC {\cyrery }\IeC {\cyrishrt } \IeC {\cyrm }\IeC {\cyro }\IeC {\cyrm }\IeC {\cyre }\IeC {\cyrn }\IeC {\cyrt } \IeC {\cyrs }\IeC {\cyro }\IeC {\cyrs }\IeC {\cyrt }\IeC {\cyro }\IeC {\cyrya }\IeC {\cyrn }\IeC {\cyri }\IeC {\cyrya } \IeC {\cyrg }\IeC {\cyra }\IeC {\cyrz }\IeC {\cyra }}}{16}{figure.7}}
\@writefile{lof}{\contentsline {figure}{\numberline {8}{\ignorespaces \IeC {\CYRI }\IeC {\cyrz }\IeC {\cyrm }\IeC {\cyre }\IeC {\cyrn }\IeC {\cyre }\IeC {\cyrn }\IeC {\cyri }\IeC {\cyre } \IeC {\cyrm }\IeC {\cyra }\IeC {\cyrs }\IeC {\cyrs }\IeC {\cyrery } $m(t)$ \IeC {\cyrg }\IeC {\cyra }\IeC {\cyrz }\IeC {\cyra } \IeC {\cyrs } \IeC {\cyrt }\IeC {\cyre }\IeC {\cyrch }\IeC {\cyre }\IeC {\cyrn }\IeC {\cyri }\IeC {\cyre }\IeC {\cyrm } \IeC {\cyrv }\IeC {\cyrr }\IeC {\cyre }\IeC {\cyrm }\IeC {\cyre }\IeC {\cyrn }\IeC {\cyri }}}{17}{figure.8}}
\@writefile{toc}{\contentsline {subsection}{\IeC {\CYRV }\IeC {\cyrt }\IeC {\cyro }\IeC {\cyrr }\IeC {\cyro }\IeC {\cyrishrt } \IeC {\cyrn }\IeC {\cyra }\IeC {\cyrb }\IeC {\cyro }\IeC {\cyrr } \IeC {\cyrp }\IeC {\cyra }\IeC {\cyrr }\IeC {\cyra }\IeC {\cyrm }\IeC {\cyre }\IeC {\cyrt }\IeC {\cyrr }\IeC {\cyro }\IeC {\cyrv }}{17}{figure.8}}
\@writefile{lot}{\contentsline {table}{\numberline {20}{\ignorespaces \IeC {\CYRM }\IeC {\cyro }\IeC {\cyrm }\IeC {\cyre }\IeC {\cyrn }\IeC {\cyrt } \IeC {\cyrz }\IeC {\cyra }\IeC {\cyrv }\IeC {\cyre }\IeC {\cyrr }\IeC {\cyrsh }\IeC {\cyre }\IeC {\cyrn }\IeC {\cyri }\IeC {\cyrya } \IeC {\cyrp }\IeC {\cyrr }\IeC {\cyro }\IeC {\cyrg }\IeC {\cyrr }\IeC {\cyra }\IeC {\cyrm }\IeC {\cyrm }\IeC {\cyrery } \IeC {\cyrv }\IeC {\cyrery }\IeC {\cyrch }\IeC {\cyri }\IeC {\cyrs }\IeC {\cyrl }\IeC {\cyre }\IeC {\cyrn }\IeC {\cyri }\IeC {\cyrya } \IeC {\cyrz }\IeC {\cyra }\IeC {\cyrd }\IeC {\cyra }\IeC {\cyrch }\IeC {\cyri } \IeC {\cyrp }\IeC {\cyrr }\IeC {\cyro }\IeC {\cyrt }\IeC {\cyre }\IeC {\cyrk }\IeC {\cyra }\IeC {\cyrn }\IeC {\cyri }\IeC {\cyrya }, $h = 0.025, \tau = 0.005$}}{17}{table.20}}
\@writefile{toc}{\contentsline {subsection}{\IeC {\CYRI }\IeC {\cyrl }\IeC {\cyrl }\IeC {\cyryu }\IeC {\cyrs }\IeC {\cyrt }\IeC {\cyrr }\IeC {\cyra }\IeC {\cyrc }\IeC {\cyri }\IeC {\cyri }}{17}{table.20}}
\@writefile{lof}{\contentsline {figure}{\numberline {9}{\ignorespaces \IeC {\CYRP }\IeC {\cyrr }\IeC {\cyro }\IeC {\cyrm }\IeC {\cyre }\IeC {\cyrzh }\IeC {\cyru }\IeC {\cyrt }\IeC {\cyro }\IeC {\cyrch }\IeC {\cyrn }\IeC {\cyrery }\IeC {\cyrishrt } \IeC {\cyrm }\IeC {\cyro }\IeC {\cyrm }\IeC {\cyre }\IeC {\cyrn }\IeC {\cyrt } \IeC {\cyrs }\IeC {\cyro }\IeC {\cyrs }\IeC {\cyrt }\IeC {\cyro }\IeC {\cyrya }\IeC {\cyrn }\IeC {\cyri }\IeC {\cyrya } \IeC {\cyrg }\IeC {\cyra }\IeC {\cyrz }\IeC {\cyra }}}{18}{figure.9}}
\@writefile{lof}{\contentsline {figure}{\numberline {10}{\ignorespaces \IeC {\CYRP }\IeC {\cyrr }\IeC {\cyro }\IeC {\cyrm }\IeC {\cyre }\IeC {\cyrzh }\IeC {\cyru }\IeC {\cyrt }\IeC {\cyro }\IeC {\cyrch }\IeC {\cyrn }\IeC {\cyrery }\IeC {\cyrishrt } \IeC {\cyrm }\IeC {\cyro }\IeC {\cyrm }\IeC {\cyre }\IeC {\cyrn }\IeC {\cyrt } \IeC {\cyrs }\IeC {\cyro }\IeC {\cyrs }\IeC {\cyrt }\IeC {\cyro }\IeC {\cyrya }\IeC {\cyrn }\IeC {\cyri }\IeC {\cyrya } \IeC {\cyrg }\IeC {\cyra }\IeC {\cyrz }\IeC {\cyra }}}{18}{figure.10}}
\@writefile{lof}{\contentsline {figure}{\numberline {11}{\ignorespaces \IeC {\CYRP }\IeC {\cyrr }\IeC {\cyro }\IeC {\cyrm }\IeC {\cyre }\IeC {\cyrzh }\IeC {\cyru }\IeC {\cyrt }\IeC {\cyro }\IeC {\cyrch }\IeC {\cyrn }\IeC {\cyrery }\IeC {\cyrishrt } \IeC {\cyrm }\IeC {\cyro }\IeC {\cyrm }\IeC {\cyre }\IeC {\cyrn }\IeC {\cyrt } \IeC {\cyrs }\IeC {\cyro }\IeC {\cyrs }\IeC {\cyrt }\IeC {\cyro }\IeC {\cyrya }\IeC {\cyrn }\IeC {\cyri }\IeC {\cyrya } \IeC {\cyrg }\IeC {\cyra }\IeC {\cyrz }\IeC {\cyra }}}{18}{figure.11}}
\@writefile{lof}{\contentsline {figure}{\numberline {12}{\ignorespaces \IeC {\CYRP }\IeC {\cyrr }\IeC {\cyro }\IeC {\cyrm }\IeC {\cyre }\IeC {\cyrzh }\IeC {\cyru }\IeC {\cyrt }\IeC {\cyro }\IeC {\cyrch }\IeC {\cyrn }\IeC {\cyrery }\IeC {\cyrishrt } \IeC {\cyrm }\IeC {\cyro }\IeC {\cyrm }\IeC {\cyre }\IeC {\cyrn }\IeC {\cyrt } \IeC {\cyrs }\IeC {\cyro }\IeC {\cyrs }\IeC {\cyrt }\IeC {\cyro }\IeC {\cyrya }\IeC {\cyrn }\IeC {\cyri }\IeC {\cyrya } \IeC {\cyrg }\IeC {\cyra }\IeC {\cyrz }\IeC {\cyra }}}{19}{figure.12}}
\@writefile{lof}{\contentsline {figure}{\numberline {13}{\ignorespaces \IeC {\CYRP }\IeC {\cyrr }\IeC {\cyro }\IeC {\cyrm }\IeC {\cyre }\IeC {\cyrzh }\IeC {\cyru }\IeC {\cyrt }\IeC {\cyro }\IeC {\cyrch }\IeC {\cyrn }\IeC {\cyrery }\IeC {\cyrishrt } \IeC {\cyrm }\IeC {\cyro }\IeC {\cyrm }\IeC {\cyre }\IeC {\cyrn }\IeC {\cyrt } \IeC {\cyrs }\IeC {\cyro }\IeC {\cyrs }\IeC {\cyrt }\IeC {\cyro }\IeC {\cyrya }\IeC {\cyrn }\IeC {\cyri }\IeC {\cyrya } \IeC {\cyrg }\IeC {\cyra }\IeC {\cyrz }\IeC {\cyra }}}{19}{figure.13}}
\@writefile{lof}{\contentsline {figure}{\numberline {14}{\ignorespaces \IeC {\CYRP }\IeC {\cyrr }\IeC {\cyro }\IeC {\cyrm }\IeC {\cyre }\IeC {\cyrzh }\IeC {\cyru }\IeC {\cyrt }\IeC {\cyro }\IeC {\cyrch }\IeC {\cyrn }\IeC {\cyrery }\IeC {\cyrishrt } \IeC {\cyrm }\IeC {\cyro }\IeC {\cyrm }\IeC {\cyre }\IeC {\cyrn }\IeC {\cyrt } \IeC {\cyrs }\IeC {\cyro }\IeC {\cyrs }\IeC {\cyrt }\IeC {\cyro }\IeC {\cyrya }\IeC {\cyrn }\IeC {\cyri }\IeC {\cyrya } \IeC {\cyrg }\IeC {\cyra }\IeC {\cyrz }\IeC {\cyra }}}{19}{figure.14}}
\@writefile{lof}{\contentsline {figure}{\numberline {15}{\ignorespaces \IeC {\CYRP }\IeC {\cyrr }\IeC {\cyro }\IeC {\cyrm }\IeC {\cyre }\IeC {\cyrzh }\IeC {\cyru }\IeC {\cyrt }\IeC {\cyro }\IeC {\cyrch }\IeC {\cyrn }\IeC {\cyrery }\IeC {\cyrishrt } \IeC {\cyrm }\IeC {\cyro }\IeC {\cyrm }\IeC {\cyre }\IeC {\cyrn }\IeC {\cyrt } \IeC {\cyrs }\IeC {\cyro }\IeC {\cyrs }\IeC {\cyrt }\IeC {\cyro }\IeC {\cyrya }\IeC {\cyrn }\IeC {\cyri }\IeC {\cyrya } \IeC {\cyrg }\IeC {\cyra }\IeC {\cyrz }\IeC {\cyra }}}{20}{figure.15}}
\@writefile{lof}{\contentsline {figure}{\numberline {16}{\ignorespaces \IeC {\CYRP }\IeC {\cyrr }\IeC {\cyro }\IeC {\cyrm }\IeC {\cyre }\IeC {\cyrzh }\IeC {\cyru }\IeC {\cyrt }\IeC {\cyro }\IeC {\cyrch }\IeC {\cyrn }\IeC {\cyrery }\IeC {\cyrishrt } \IeC {\cyrm }\IeC {\cyro }\IeC {\cyrm }\IeC {\cyre }\IeC {\cyrn }\IeC {\cyrt } \IeC {\cyrs }\IeC {\cyro }\IeC {\cyrs }\IeC {\cyrt }\IeC {\cyro }\IeC {\cyrya }\IeC {\cyrn }\IeC {\cyri }\IeC {\cyrya } \IeC {\cyrg }\IeC {\cyra }\IeC {\cyrz }\IeC {\cyra }}}{20}{figure.16}}
\@writefile{lof}{\contentsline {figure}{\numberline {17}{\ignorespaces \IeC {\CYRP }\IeC {\cyrr }\IeC {\cyro }\IeC {\cyrm }\IeC {\cyre }\IeC {\cyrzh }\IeC {\cyru }\IeC {\cyrt }\IeC {\cyro }\IeC {\cyrch }\IeC {\cyrn }\IeC {\cyrery }\IeC {\cyrishrt } \IeC {\cyrm }\IeC {\cyro }\IeC {\cyrm }\IeC {\cyre }\IeC {\cyrn }\IeC {\cyrt } \IeC {\cyrs }\IeC {\cyro }\IeC {\cyrs }\IeC {\cyrt }\IeC {\cyro }\IeC {\cyrya }\IeC {\cyrn }\IeC {\cyri }\IeC {\cyrya } \IeC {\cyrg }\IeC {\cyra }\IeC {\cyrz }\IeC {\cyra }}}{20}{figure.17}}
\@writefile{lof}{\contentsline {figure}{\numberline {18}{\ignorespaces \IeC {\CYRI }\IeC {\cyrz }\IeC {\cyrm }\IeC {\cyre }\IeC {\cyrn }\IeC {\cyre }\IeC {\cyrn }\IeC {\cyri }\IeC {\cyre } \IeC {\cyrm }\IeC {\cyra }\IeC {\cyrs }\IeC {\cyrs }\IeC {\cyrery } $m(t)$ \IeC {\cyrg }\IeC {\cyra }\IeC {\cyrz }\IeC {\cyra } \IeC {\cyrs } \IeC {\cyrt }\IeC {\cyre }\IeC {\cyrch }\IeC {\cyre }\IeC {\cyrn }\IeC {\cyri }\IeC {\cyre }\IeC {\cyrm } \IeC {\cyrv }\IeC {\cyrr }\IeC {\cyre }\IeC {\cyrm }\IeC {\cyre }\IeC {\cyrn }\IeC {\cyri }}}{21}{figure.18}}
\@writefile{toc}{\contentsline {subsection}{\IeC {\CYRT }\IeC {\cyrr }\IeC {\cyre }\IeC {\cyrt }\IeC {\cyri }\IeC {\cyrishrt } \IeC {\cyrn }\IeC {\cyra }\IeC {\cyrb }\IeC {\cyro }\IeC {\cyrr } \IeC {\cyrp }\IeC {\cyra }\IeC {\cyrr }\IeC {\cyra }\IeC {\cyrm }\IeC {\cyre }\IeC {\cyrt }\IeC {\cyrr }\IeC {\cyro }\IeC {\cyrv }}{21}{figure.18}}
\@writefile{toc}{\contentsline {subsection}{\IeC {\CYRI }\IeC {\cyrl }\IeC {\cyrl }\IeC {\cyryu }\IeC {\cyrs }\IeC {\cyrt }\IeC {\cyrr }\IeC {\cyra }\IeC {\cyrc }\IeC {\cyri }\IeC {\cyri }}{21}{figure.18}}
\@writefile{lof}{\contentsline {figure}{\numberline {19}{\ignorespaces \IeC {\CYRP }\IeC {\cyrr }\IeC {\cyro }\IeC {\cyrm }\IeC {\cyre }\IeC {\cyrzh }\IeC {\cyru }\IeC {\cyrt }\IeC {\cyro }\IeC {\cyrch }\IeC {\cyrn }\IeC {\cyrery }\IeC {\cyrishrt } \IeC {\cyrm }\IeC {\cyro }\IeC {\cyrm }\IeC {\cyre }\IeC {\cyrn }\IeC {\cyrt } \IeC {\cyrs }\IeC {\cyro }\IeC {\cyrs }\IeC {\cyrt }\IeC {\cyro }\IeC {\cyrya }\IeC {\cyrn }\IeC {\cyri }\IeC {\cyrya } \IeC {\cyrg }\IeC {\cyra }\IeC {\cyrz }\IeC {\cyra }}}{21}{figure.19}}
\@writefile{lof}{\contentsline {figure}{\numberline {20}{\ignorespaces \IeC {\CYRP }\IeC {\cyrr }\IeC {\cyro }\IeC {\cyrm }\IeC {\cyre }\IeC {\cyrzh }\IeC {\cyru }\IeC {\cyrt }\IeC {\cyro }\IeC {\cyrch }\IeC {\cyrn }\IeC {\cyrery }\IeC {\cyrishrt } \IeC {\cyrm }\IeC {\cyro }\IeC {\cyrm }\IeC {\cyre }\IeC {\cyrn }\IeC {\cyrt } \IeC {\cyrs }\IeC {\cyro }\IeC {\cyrs }\IeC {\cyrt }\IeC {\cyro }\IeC {\cyrya }\IeC {\cyrn }\IeC {\cyri }\IeC {\cyrya } \IeC {\cyrg }\IeC {\cyra }\IeC {\cyrz }\IeC {\cyra }}}{22}{figure.20}}
\@writefile{lof}{\contentsline {figure}{\numberline {21}{\ignorespaces \IeC {\CYRP }\IeC {\cyrr }\IeC {\cyro }\IeC {\cyrm }\IeC {\cyre }\IeC {\cyrzh }\IeC {\cyru }\IeC {\cyrt }\IeC {\cyro }\IeC {\cyrch }\IeC {\cyrn }\IeC {\cyrery }\IeC {\cyrishrt } \IeC {\cyrm }\IeC {\cyro }\IeC {\cyrm }\IeC {\cyre }\IeC {\cyrn }\IeC {\cyrt } \IeC {\cyrs }\IeC {\cyro }\IeC {\cyrs }\IeC {\cyrt }\IeC {\cyro }\IeC {\cyrya }\IeC {\cyrn }\IeC {\cyri }\IeC {\cyrya } \IeC {\cyrg }\IeC {\cyra }\IeC {\cyrz }\IeC {\cyra }}}{22}{figure.21}}
\@writefile{lof}{\contentsline {figure}{\numberline {22}{\ignorespaces \IeC {\CYRP }\IeC {\cyrr }\IeC {\cyro }\IeC {\cyrm }\IeC {\cyre }\IeC {\cyrzh }\IeC {\cyru }\IeC {\cyrt }\IeC {\cyro }\IeC {\cyrch }\IeC {\cyrn }\IeC {\cyrery }\IeC {\cyrishrt } \IeC {\cyrm }\IeC {\cyro }\IeC {\cyrm }\IeC {\cyre }\IeC {\cyrn }\IeC {\cyrt } \IeC {\cyrs }\IeC {\cyro }\IeC {\cyrs }\IeC {\cyrt }\IeC {\cyro }\IeC {\cyrya }\IeC {\cyrn }\IeC {\cyri }\IeC {\cyrya } \IeC {\cyrg }\IeC {\cyra }\IeC {\cyrz }\IeC {\cyra }}}{22}{figure.22}}
\@writefile{lof}{\contentsline {figure}{\numberline {23}{\ignorespaces \IeC {\CYRP }\IeC {\cyrr }\IeC {\cyro }\IeC {\cyrm }\IeC {\cyre }\IeC {\cyrzh }\IeC {\cyru }\IeC {\cyrt }\IeC {\cyro }\IeC {\cyrch }\IeC {\cyrn }\IeC {\cyrery }\IeC {\cyrishrt } \IeC {\cyrm }\IeC {\cyro }\IeC {\cyrm }\IeC {\cyre }\IeC {\cyrn }\IeC {\cyrt } \IeC {\cyrs }\IeC {\cyro }\IeC {\cyrs }\IeC {\cyrt }\IeC {\cyro }\IeC {\cyrya }\IeC {\cyrn }\IeC {\cyri }\IeC {\cyrya } \IeC {\cyrg }\IeC {\cyra }\IeC {\cyrz }\IeC {\cyra }}}{23}{figure.23}}
\@writefile{lof}{\contentsline {figure}{\numberline {24}{\ignorespaces \IeC {\CYRP }\IeC {\cyrr }\IeC {\cyro }\IeC {\cyrm }\IeC {\cyre }\IeC {\cyrzh }\IeC {\cyru }\IeC {\cyrt }\IeC {\cyro }\IeC {\cyrch }\IeC {\cyrn }\IeC {\cyrery }\IeC {\cyrishrt } \IeC {\cyrm }\IeC {\cyro }\IeC {\cyrm }\IeC {\cyre }\IeC {\cyrn }\IeC {\cyrt } \IeC {\cyrs }\IeC {\cyro }\IeC {\cyrs }\IeC {\cyrt }\IeC {\cyro }\IeC {\cyrya }\IeC {\cyrn }\IeC {\cyri }\IeC {\cyrya } \IeC {\cyrg }\IeC {\cyra }\IeC {\cyrz }\IeC {\cyra }}}{23}{figure.24}}
\@writefile{lof}{\contentsline {figure}{\numberline {25}{\ignorespaces \IeC {\CYRP }\IeC {\cyrr }\IeC {\cyro }\IeC {\cyrm }\IeC {\cyre }\IeC {\cyrzh }\IeC {\cyru }\IeC {\cyrt }\IeC {\cyro }\IeC {\cyrch }\IeC {\cyrn }\IeC {\cyrery }\IeC {\cyrishrt } \IeC {\cyrm }\IeC {\cyro }\IeC {\cyrm }\IeC {\cyre }\IeC {\cyrn }\IeC {\cyrt } \IeC {\cyrs }\IeC {\cyro }\IeC {\cyrs }\IeC {\cyrt }\IeC {\cyro }\IeC {\cyrya }\IeC {\cyrn }\IeC {\cyri }\IeC {\cyrya } \IeC {\cyrg }\IeC {\cyra }\IeC {\cyrz }\IeC {\cyra }}}{23}{figure.25}}
\@writefile{lof}{\contentsline {figure}{\numberline {26}{\ignorespaces \IeC {\CYRP }\IeC {\cyrr }\IeC {\cyro }\IeC {\cyrm }\IeC {\cyre }\IeC {\cyrzh }\IeC {\cyru }\IeC {\cyrt }\IeC {\cyro }\IeC {\cyrch }\IeC {\cyrn }\IeC {\cyrery }\IeC {\cyrishrt } \IeC {\cyrm }\IeC {\cyro }\IeC {\cyrm }\IeC {\cyre }\IeC {\cyrn }\IeC {\cyrt } \IeC {\cyrs }\IeC {\cyro }\IeC {\cyrs }\IeC {\cyrt }\IeC {\cyro }\IeC {\cyrya }\IeC {\cyrn }\IeC {\cyri }\IeC {\cyrya } \IeC {\cyrg }\IeC {\cyra }\IeC {\cyrz }\IeC {\cyra }}}{24}{figure.26}}
\@writefile{lof}{\contentsline {figure}{\numberline {27}{\ignorespaces \IeC {\CYRP }\IeC {\cyrr }\IeC {\cyro }\IeC {\cyrm }\IeC {\cyre }\IeC {\cyrzh }\IeC {\cyru }\IeC {\cyrt }\IeC {\cyro }\IeC {\cyrch }\IeC {\cyrn }\IeC {\cyrery }\IeC {\cyrishrt } \IeC {\cyrm }\IeC {\cyro }\IeC {\cyrm }\IeC {\cyre }\IeC {\cyrn }\IeC {\cyrt } \IeC {\cyrs }\IeC {\cyro }\IeC {\cyrs }\IeC {\cyrt }\IeC {\cyro }\IeC {\cyrya }\IeC {\cyrn }\IeC {\cyri }\IeC {\cyrya } \IeC {\cyrg }\IeC {\cyra }\IeC {\cyrz }\IeC {\cyra }}}{24}{figure.27}}
\@writefile{lof}{\contentsline {figure}{\numberline {28}{\ignorespaces \IeC {\CYRI }\IeC {\cyrz }\IeC {\cyrm }\IeC {\cyre }\IeC {\cyrn }\IeC {\cyre }\IeC {\cyrn }\IeC {\cyri }\IeC {\cyre } \IeC {\cyrm }\IeC {\cyra }\IeC {\cyrs }\IeC {\cyrs }\IeC {\cyrery } $m(t)$ \IeC {\cyrg }\IeC {\cyra }\IeC {\cyrz }\IeC {\cyra } \IeC {\cyrs } \IeC {\cyrt }\IeC {\cyre }\IeC {\cyrch }\IeC {\cyre }\IeC {\cyrn }\IeC {\cyri }\IeC {\cyre }\IeC {\cyrm } \IeC {\cyrv }\IeC {\cyrr }\IeC {\cyre }\IeC {\cyrm }\IeC {\cyre }\IeC {\cyrn }\IeC {\cyri }}}{25}{figure.28}}
\@writefile{toc}{\contentsline {section}{\numberline {7}C\IeC {\cyrr }\IeC {\cyra }\IeC {\cyrv }\IeC {\cyrn }\IeC {\cyre }\IeC {\cyrn }\IeC {\cyri }\IeC {\cyre } \IeC {\cyrs }\IeC {\cyro }\IeC {\cyrb }\IeC {\cyrs }\IeC {\cyrt }\IeC {\cyrv }\IeC {\cyre }\IeC {\cyrn }\IeC {\cyrn }\IeC {\cyro }\IeC {\cyrishrt } \IeC {\cyrr }\IeC {\cyre }\IeC {\cyra }\IeC {\cyrl }\IeC {\cyri }\IeC {\cyrz }\IeC {\cyra }\IeC {\cyrc }\IeC {\cyri }\IeC {\cyri } \IeC {\cyri } \IeC {\cyrr }\IeC {\cyre }\IeC {\cyra }\IeC {\cyrl }\IeC {\cyri }\IeC {\cyrz }\IeC {\cyra }\IeC {\cyrc }\IeC {\cyri }\IeC {\cyri } \IeC {\cyrv } \IeC {\cyrp }\IeC {\cyra }\IeC {\cyrk }\IeC {\cyre }\IeC {\cyrt }\IeC {\cyre } $LASPACK$}{26}{section.7}}
\@writefile{toc}{\contentsline {subsection}{\IeC {\CYRS }\IeC {\cyrr }\IeC {\cyra }\IeC {\cyrv }\IeC {\cyrn }\IeC {\cyre }\IeC {\cyrn }\IeC {\cyri }\IeC {\cyre } \IeC {\cyrm }\IeC {\cyro }\IeC {\cyrm }\IeC {\cyre }\IeC {\cyrn }\IeC {\cyrt }\IeC {\cyro }\IeC {\cyrv } \IeC {\cyrz }\IeC {\cyra }\IeC {\cyrv }\IeC {\cyre }\IeC {\cyrr }\IeC {\cyrsh }\IeC {\cyre }\IeC {\cyrn }\IeC {\cyri }\IeC {\cyrya } \IeC {\cyrp }\IeC {\cyrr }\IeC {\cyro }\IeC {\cyrg }\IeC {\cyrr }\IeC {\cyra }\IeC {\cyrm }\IeC {\cyrm }\IeC {\cyrery }}{26}{section*.4}}
\@writefile{toc}{\contentsline {subsection}{\IeC {\CYRS }\IeC {\cyrr }\IeC {\cyra }\IeC {\cyrv }\IeC {\cyrn }\IeC {\cyre }\IeC {\cyrn }\IeC {\cyri }\IeC {\cyre } \IeC {\cyrv }\IeC {\cyrr }\IeC {\cyre }\IeC {\cyrm }\IeC {\cyrya } \IeC {\cyrr }\IeC {\cyra }\IeC {\cyrb }\IeC {\cyro }\IeC {\cyrt }\IeC {\cyrery } \IeC {\cyrp }\IeC {\cyrr }\IeC {\cyro }\IeC {\cyrg }\IeC {\cyrr }\IeC {\cyra }\IeC {\cyrm }\IeC {\cyrm }\IeC {\cyrery }}{26}{Item.3}}
\@writefile{toc}{\contentsline {subsection}{\IeC {\CYRCH }\IeC {\cyre }\IeC {\cyrt }\IeC {\cyrv }\IeC {\cyre }\IeC {\cyrr }\IeC {\cyrt }\IeC {\cyrery }\IeC {\cyrishrt } \IeC {\cyrn }\IeC {\cyra }\IeC {\cyrb }\IeC {\cyro }\IeC {\cyrr } \IeC {\cyrp }\IeC {\cyra }\IeC {\cyrr }\IeC {\cyra }\IeC {\cyrm }\IeC {\cyre }\IeC {\cyrt }\IeC {\cyrr }\IeC {\cyro }\IeC {\cyrv }}{26}{Item.6}}
\@writefile{toc}{\contentsline {subsection}{\IeC {\CYRI }\IeC {\cyrl }\IeC {\cyrl }\IeC {\cyryu }\IeC {\cyrs }\IeC {\cyrt }\IeC {\cyrr }\IeC {\cyra }\IeC {\cyrc }\IeC {\cyri }\IeC {\cyri }}{26}{Item.6}}
\@writefile{lof}{\contentsline {figure}{\numberline {29}{\ignorespaces \IeC {\CYRP }\IeC {\cyrr }\IeC {\cyro }\IeC {\cyrm }\IeC {\cyre }\IeC {\cyrzh }\IeC {\cyru }\IeC {\cyrt }\IeC {\cyro }\IeC {\cyrch }\IeC {\cyrn }\IeC {\cyrery }\IeC {\cyrishrt } \IeC {\cyrm }\IeC {\cyro }\IeC {\cyrm }\IeC {\cyre }\IeC {\cyrn }\IeC {\cyrt } \IeC {\cyrs }\IeC {\cyro }\IeC {\cyrs }\IeC {\cyrt }\IeC {\cyro }\IeC {\cyrya }\IeC {\cyrn }\IeC {\cyri }\IeC {\cyrya } \IeC {\cyrg }\IeC {\cyra }\IeC {\cyrz }\IeC {\cyra }}}{26}{figure.29}}
\@writefile{lof}{\contentsline {figure}{\numberline {30}{\ignorespaces \IeC {\CYRP }\IeC {\cyrr }\IeC {\cyro }\IeC {\cyrm }\IeC {\cyre }\IeC {\cyrzh }\IeC {\cyru }\IeC {\cyrt }\IeC {\cyro }\IeC {\cyrch }\IeC {\cyrn }\IeC {\cyrery }\IeC {\cyrishrt } \IeC {\cyrm }\IeC {\cyro }\IeC {\cyrm }\IeC {\cyre }\IeC {\cyrn }\IeC {\cyrt } \IeC {\cyrs }\IeC {\cyro }\IeC {\cyrs }\IeC {\cyrt }\IeC {\cyro }\IeC {\cyrya }\IeC {\cyrn }\IeC {\cyri }\IeC {\cyrya } \IeC {\cyrg }\IeC {\cyra }\IeC {\cyrz }\IeC {\cyra }}}{27}{figure.30}}
\@writefile{lof}{\contentsline {figure}{\numberline {31}{\ignorespaces \IeC {\CYRP }\IeC {\cyrr }\IeC {\cyro }\IeC {\cyrm }\IeC {\cyre }\IeC {\cyrzh }\IeC {\cyru }\IeC {\cyrt }\IeC {\cyro }\IeC {\cyrch }\IeC {\cyrn }\IeC {\cyrery }\IeC {\cyrishrt } \IeC {\cyrm }\IeC {\cyro }\IeC {\cyrm }\IeC {\cyre }\IeC {\cyrn }\IeC {\cyrt } \IeC {\cyrs }\IeC {\cyro }\IeC {\cyrs }\IeC {\cyrt }\IeC {\cyro }\IeC {\cyrya }\IeC {\cyrn }\IeC {\cyri }\IeC {\cyrya } \IeC {\cyrg }\IeC {\cyra }\IeC {\cyrz }\IeC {\cyra }}}{27}{figure.31}}
\@writefile{lof}{\contentsline {figure}{\numberline {32}{\ignorespaces \IeC {\CYRP }\IeC {\cyrr }\IeC {\cyro }\IeC {\cyrm }\IeC {\cyre }\IeC {\cyrzh }\IeC {\cyru }\IeC {\cyrt }\IeC {\cyro }\IeC {\cyrch }\IeC {\cyrn }\IeC {\cyrery }\IeC {\cyrishrt } \IeC {\cyrm }\IeC {\cyro }\IeC {\cyrm }\IeC {\cyre }\IeC {\cyrn }\IeC {\cyrt } \IeC {\cyrs }\IeC {\cyro }\IeC {\cyrs }\IeC {\cyrt }\IeC {\cyro }\IeC {\cyrya }\IeC {\cyrn }\IeC {\cyri }\IeC {\cyrya } \IeC {\cyrg }\IeC {\cyra }\IeC {\cyrz }\IeC {\cyra }}}{27}{figure.32}}
\@writefile{lof}{\contentsline {figure}{\numberline {33}{\ignorespaces \IeC {\CYRP }\IeC {\cyrr }\IeC {\cyro }\IeC {\cyrm }\IeC {\cyre }\IeC {\cyrzh }\IeC {\cyru }\IeC {\cyrt }\IeC {\cyro }\IeC {\cyrch }\IeC {\cyrn }\IeC {\cyrery }\IeC {\cyrishrt } \IeC {\cyrm }\IeC {\cyro }\IeC {\cyrm }\IeC {\cyre }\IeC {\cyrn }\IeC {\cyrt } \IeC {\cyrs }\IeC {\cyro }\IeC {\cyrs }\IeC {\cyrt }\IeC {\cyro }\IeC {\cyrya }\IeC {\cyrn }\IeC {\cyri }\IeC {\cyrya } \IeC {\cyrg }\IeC {\cyra }\IeC {\cyrz }\IeC {\cyra }}}{28}{figure.33}}
\@writefile{lof}{\contentsline {figure}{\numberline {34}{\ignorespaces \IeC {\CYRI }\IeC {\cyrz }\IeC {\cyrm }\IeC {\cyre }\IeC {\cyrn }\IeC {\cyre }\IeC {\cyrn }\IeC {\cyri }\IeC {\cyre } \IeC {\cyrm }\IeC {\cyra }\IeC {\cyrs }\IeC {\cyrs }\IeC {\cyrery } $m(t)$ \IeC {\cyrg }\IeC {\cyra }\IeC {\cyrz }\IeC {\cyra } \IeC {\cyrs } \IeC {\cyrt }\IeC {\cyre }\IeC {\cyrch }\IeC {\cyre }\IeC {\cyrn }\IeC {\cyri }\IeC {\cyre }\IeC {\cyrm } \IeC {\cyrv }\IeC {\cyrr }\IeC {\cyre }\IeC {\cyrm }\IeC {\cyre }\IeC {\cyrn }\IeC {\cyri }}}{28}{figure.34}}
\@writefile{toc}{\contentsline {subsection}{\IeC {\CYRV }\IeC {\cyrery }\IeC {\cyrv }\IeC {\cyro }\IeC {\cyrd }}{28}{figure.34}}
